teUrl='http://te.kontera.com/ContentLink/ContentLink?publisherId=550&layout=adlinks&sId=1347&cb=1238314940&creative=L&cn=';
setMaxLinksOnPage(6);
pageTopicVector="32:1|16:0.5|82:1|65:0.5|142:2.1|164:1|598:1.5|1179:1|94:3.03877|245:2|225:1|270:1.5|271:1|276:0.5|1347:3|770:21.8791|788:4|350:14.0391|393:1.5|395:1|398:0.5|712:13.5|715:9|683:4.5|1023:1.5|1017:4.6305|1071:2.31525|1327:1.5|1342:0.75|1769:1|1765:0.5|2076:3.15|2044:4.96125|2043:2.48062|";
setKonaResults(1,0,"L|0|0|0|white|none&pRfr=http://www.indianguitartabs.com/showthread.php?t=8540&dc_aff_id=");
onKonaReturn(0);

